%YAML 1.1
%TAG !u! tag:unity3d.com,2011:
--- !u!134 &13400000
PhysicMaterial:
  m_ObjectHideFlags: 0
  m_PrefabParentObject: {fileID: 0}
  m_PrefabInternal: {fileID: 0}
  m_Name: Bocha
  dynamicFriction: 0.9
  staticFriction: 0.75
  bounciness: 0.4
  frictionCombine: 2
  bounceCombine: 0
